{
  "project_info": {
    "project_number": "535790059911",
    "firebase_url": "https://thaifex-2018.firebaseio.com",
    "project_id": "thaifex-2018",
    "storage_bucket": "thaifex-2018.appspot.com"
  },
  "client": [
    {
      "client_info": {
        "mobilesdk_app_id": "1:535790059911:android:dec6ed6c2bdcceee",
        "android_client_info": {
          "package_name": "com.corpit.thaifex2018"
        }
      },
      "oauth_client": [
        {
          "client_id": "535790059911-01ihek0562s1cgokkte3tuooo3l98vmb.apps.googleusercontent.com",
          "client_type": 3
        }
      ],
      "api_key": [
        {
          "current_key": "AIzaSyC8VgYMc3qzInodaYbsjM_EVSKIgjSW3Eo"
        }
      ],
      "services": {
        "analytics_service": {
          "status": 1
        },
        "appinvite_service": {
          "status": 1,
          "other_platform_oauth_client": []
        },
        "ads_service": {
          "status": 2
        }
      }
    }
  ],
  "configuration_version": "1"
}