{
  "data": [
    {
      "timestamp": "1523885237.87441",
      "m_menuType": "Side Menu",
      "m_TitleEn": "Updates",
      "m_weblink": "",
      "m_permissioncontrol": "VIP/Exhibitor/Delegate/Visitor/Guest",
      "m_parentMenuID": "",
      "m_IconUrl": "http://203.125.155.188/thaifex2018/sys_Images/Mobile/AppIcon2018-04-13-09-41-33.png",
      "m_id": "MU10024",
      "m_TitleCn": "Updates",
      "m_OrderID": "11",
      "m_PageType": "Updates"
    }
  ],
  "message": "success",
  "Status": "200"
}