{
    "data": [{
        "UpdatedDate": "1525786844.674",
        "ep_category": "Paediatric Dermatological conditions",
        "ep_coauthor": "Mr. Test Co Author",
        "ep_duration": "09:00 - 10:30",
        "ep_file": "http://203.125.155.188/StandardMobile/Images/FrontEnd_Photos/HERO5Black_UM_ENG_REVC_Web_636613836432110000.pdf",
        "ep_abstract": "\u003cp\u003e\r\n\they i just met you\u003c/p\u003e\r\n",
        "ID": "181",
        "ep_venue": "Convention Foyer",
        "ep_title": "Treatment of primary palmar hyperhidrosis using glycopyrrolate iontophoresis: intensity of electrical current used, efficacy and side effectsTest",
        "ep_author": "Terrence (Mr)"
    }],
    "message": "success",
    "Status": "200"
}