{
    "data": [
        {
            "i_isPush": "Pushed",
            "i_time": "13:55",
            "UpdatedDate": "1521640597.33258",
            "i_date": "21/03/2018",
            "i_ID": "RID37716",
            "from": "OTC Asia",
            "i_content": "<p>\r\n\tPlease head on to Room 406/407 on Level 4 for Special Session 2 on Autonomous Operations</p>\r\n",
            "i_title": "Join Us at Panel Session 2 Happening in 5 Minutes!"
        },
        {
            "i_isPush": "Pushed",
            "i_time": "13:55",
            "UpdatedDate": "1521726512.22489",
            "i_date": "22/03/2018",
            "i_ID": "RID37724",
            "from": "OTC Asia",
            "i_content": "<p>\r\n\tHead on to Banquet Hall, Level 3 to join the session.</p>\r\n",
            "i_title": "Learn more about Sri Lanka in 5 Minutes!"
        },
        {
            "i_isPush": "Pushed",
            "i_time": "08:45",
            "UpdatedDate": "1521708107.38333",
            "i_date": "22/03/2018",
            "i_ID": "RID37718",
            "from": "OTC Asia",
            "i_content": "<p>\r\n\t<img src=\"http://203.127.83.146/mobileotcasia2018/Images/FrontEnd_Photos/getfittertogether.jpg\" /></p>\r\n<p>\r\n\tCheck out the feed here:&nbsp;</p>\r\n<p>\r\n\t<a href=\"http://2018.otcasia.org/files/daily_feed_2__5_reasons_why_we_can_only_get_fitter_together.pdf \"><img src=\"http://203.127.83.146/mobileotcasia2018/Images/FrontEnd_Photos/pdficon.png\" /></a></p>\r\n",
            "i_title": "Good Morning! Daily Feed 2: 5 Reasons Why We Can Only Get Fitter Together"
        },
        {
            "i_isPush": "Pushed",
            "i_time": "08:55",
            "UpdatedDate": "1521707233.39179",
            "i_date": "22/03/2018",
            "i_ID": "RID37719",
            "from": "OTC Asia",
            "i_content": "<p>\r\n\tHead to Banquet Hall, Level 3 to learn more about India.</p>\r\n",
            "i_title": "Country Session on India Starts in 5!"
        },
        {
            "i_isPush": "Pushed",
            "i_time": "10:55",
            "UpdatedDate": "1521715714.51623",
            "i_date": "22/03/2018",
            "i_ID": "RID37722",
            "from": "OTC Asia",
            "i_content": "<p>\r\n\tHead on to the Banquet Hall on Level 3 to join this country session.</p>\r\n",
            "i_title": "Country Session: Malaysia Starts in 5!"
        },
        {
            "i_isPush": "Pushed",
            "i_time": "08:30",
            "UpdatedDate": "1521792482.26389",
            "i_date": "23/03/2018",
            "i_ID": "RID37725",
            "from": "OTC Asia",
            "i_content": "<p>\r\n\t<img src=\"http://203.127.83.146/mobileotcasia2018/Images/FrontEnd_Photos/future.jpg\" /></p>\r\n<p>\r\n\tCheck out the feed here:&nbsp;</p>\r\n<p>\r\n\t<a href=\"http://2018.otcasia.org/files/daily_feed_3__facilities_of_the_future.pdf \"><img src=\"http://203.127.83.146/mobileotcasia2018/Images/FrontEnd_Photos/pdficon.png\" /></a></p>\r\n",
            "i_title": "Final Daily Feed: Facilities of the Future"
        },
        {
            "i_isPush": "Pushed",
            "i_time": "08:45",
            "UpdatedDate": "1521792555.67808",
            "i_date": "23/03/2018",
            "i_ID": "RID37727",
            "from": "OTC Asia",
            "i_content": "<p>\r\n\tThe Netherlands Country Session is coming up at 0900 hours in the Banquet Hall on Level 3. Head on up now!</p>\r\n",
            "i_title": "Find Out More About The Netherlands"
        },
        {
            "i_isPush": "Pushed",
            "i_time": "08:55",
            "UpdatedDate": "1521792590.48108",
            "i_date": "23/03/2018",
            "i_ID": "RID37728",
            "from": "OTC Asia",
            "i_content": "<p>\r\n\tHead on up to Room 406/407 on Level 4</p>\r\n",
            "i_title": "Deepwater Projects Special Session Coming Up in 5!"
        },
        {
            "i_isPush": "Pushed",
            "i_time": "10:45",
            "UpdatedDate": "1521801518.0157",
            "i_date": "23/03/2018",
            "i_ID": "RID37730",
            "from": "OTC Asia",
            "i_content": "<p>\r\n\tPanel Session 7 on Decommissioning &ndash; The New Era will start at 1100 hours at the Plenary Theatre on Level 3</p>\r\n",
            "i_title": "Panel Session 7 Coming Up in 15!"
        },
        {
            "i_isPush": "Pushed",
            "i_time": "10:55",
            "UpdatedDate": "1521801829.53352",
            "i_date": "23/03/2018",
            "i_ID": "RID37732",
            "from": "OTC Asia",
            "i_content": "<p>\r\n\tSpecial Session 5 on Technologically Challenged Fields will start at 1100 in Room 406/407 on Level 4.</p>\r\n",
            "i_title": "Special Session 5 Starts in 5 Minutes!"
        },
        {
            "i_isPush": "Pushed",
            "i_time": "10:50",
            "UpdatedDate": "1521715418.67731",
            "i_date": "22/03/2018",
            "i_ID": "RID37721",
            "from": "OTC Asia",
            "i_content": "<p>\r\n\tJoin us for the Game Changing Ideas Plenary Session at the Plenary Theatre on Level 3.</p>\r\n",
            "i_title": "Game Changing Ideas Plenary Session starts in 10 Minutes!"
        },
        {
            "i_isPush": "Pushed",
            "i_time": "10:30",
            "UpdatedDate": "1521714235.14703",
            "i_date": "22/03/2018",
            "i_ID": "RID37720",
            "from": "OTC Asia",
            "i_content": "<p>\r\n\tAccess on-the-floor technical presentations / ePosters at the Foyer of Level 3.</p>\r\n",
            "i_title": "Don’t Forget to Check Out the ePoster Sessions"
        },
        {
            "i_isPush": "Pushed",
            "i_time": "13:45",
            "UpdatedDate": "1521725926.39706",
            "i_date": "22/03/2018",
            "i_ID": "RID37723",
            "from": "OTC Asia",
            "i_content": "<p>\r\n\tPanel Session 4: Applications of Technologies from Other Industries to Oil and Gas will be held at the Plenary Theatre on Level 3.</p>\r\n",
            "i_title": "Panel Session 4 Coming Up in 15!"
        },
        {
            "i_isPush": "Pushed",
            "i_time": "08:45",
            "UpdatedDate": "1521792521.83215",
            "i_date": "23/03/2018",
            "i_ID": "RID37726",
            "from": "OTC Asia",
            "i_content": "<p>\r\n\tPanel Session 6: Better for Longer &ndash; Asset Integrity and Life Extension starts at 0900 hours in Plenary Theatre on Level 3</p>\r\n",
            "i_title": "Panel Session 6 Starts in 15 Minutes!"
        },
        {
            "i_isPush": "Pushed",
            "i_time": "13:50",
            "UpdatedDate": "1521639742.14967",
            "i_date": "21/03/2018",
            "i_ID": "RID37714",
            "from": "OTC Asia",
            "i_content": "<p>\r\n\tPanel Session 3 on Revolutionary Evolution &ndash; The Impact of Big Data on Offshore Energy will be held in Plenary Theatre on Level 3 at 1600 hours.</p>\r\n",
            "i_title": "Panel Session 3 Starting in 10 Minutes"
        },
        {
            "i_isPush": "Pushed",
            "i_time": "13:45",
            "UpdatedDate": "1521639400.18511",
            "i_date": "21/03/2018",
            "i_ID": "RID37712",
            "from": "OTC Asia",
            "i_content": "<p>\r\n\tJoin us for Panel Session 2: Strategy Review &ndash; Reshape and Regain Market Competitiveness at Plenary Theatre on Level 3.</p>\r\n",
            "i_title": "Panel Session 2 Coming Up in 15!"
        },
        {
            "i_isPush": "Pushed",
            "i_time": "13:50",
            "UpdatedDate": "1521639708.18473",
            "i_date": "21/03/2018",
            "i_ID": "RID37713",
            "from": "OTC Asia",
            "i_content": "<p>\r\n\tAttend the Country Session on Indonesia in Banquet Hall on Level 3</p>\r\n",
            "i_title": "Learn More about Indonesia in 10 Minutes!"
        },
        {
            "i_isPush": "Pushed",
            "i_time": "10:50",
            "UpdatedDate": "1521801768.006",
            "i_date": "23/03/2018",
            "i_ID": "RID37731",
            "from": "OTC Asia",
            "i_content": "<p>\r\n\tHead on up to Banquet Hall on Level 3 at 1100 hours.</p>\r\n",
            "i_title": "Find Out More About South Korea in 10 Minutes!"
        },
        {
            "i_isPush": "Pushed",
            "i_time": "15:00",
            "UpdatedDate": "1521816792.00432",
            "i_date": "23/03/2018",
            "i_ID": "RID37735",
            "from": "OTC Asia",
            "i_content": "<p>\r\n\tStand a chance to win amazing prizes at the Closing Session in Conference Hall 2, Level 3 at 1600 hours today!</p>\r\n<p>\r\n\t&nbsp;</p>\r\n<p>\r\n\tThis is what you have to do:</p>\r\n<ul>\r\n\t<li>\r\n\t\tComplete the Attendee Survey at <a href=\"http://go.otcasia.org/18OTCA-Survey\">http://go.otcasia.org/18OTCA-Survey</a></li>\r\n\t<li>\r\n\t\tDrop your business card at Conference Hall 2, Level 3 at the Closing Session</li>\r\n\t<li>\r\n\t\tStand a chance to win an iPhone X!</li>\r\n</ul>\r\n<p>\r\n\t&nbsp;</p>\r\n<p>\r\n\tSee you at the Closing Session!</p>\r\n",
            "i_title": "Win an iPhone X at the Closing Session Lucky Draw"
        },
        {
            "i_isPush": "Pushed",
            "i_time": "13:55",
            "UpdatedDate": "1521640554.75815",
            "i_date": "21/03/2018",
            "i_ID": "RID37715",
            "from": "OTC Asia",
            "i_content": "<p>\r\n\tPlease head on to Banquet Hall on Level 3 to hear the latest on Thailand.</p>\r\n",
            "i_title": "Country Session on Thailand Coming Up!"
        },
        {
            "i_isPush": "Pushed",
            "i_time": "10:25",
            "UpdatedDate": "1521800343.75054",
            "i_date": "23/03/2018",
            "i_ID": "RID37729",
            "from": "OTC Asia",
            "i_content": "<p>\r\n\tProceed to the Foyer of Level 3 to check the ePosters/</p>\r\n",
            "i_title": "The Final ePoster Session Starts in 5 Minutes!"
        },
        {
            "i_isPush": "Pushed",
            "i_time": "15:55",
            "UpdatedDate": "1521644342.30878",
            "i_date": "21/03/2018",
            "i_ID": "RID37717",
            "from": "OTC Asia",
            "i_content": "<p>\r\n\tHappening at the OTCaf&eacute;, Hall 6, Ground Level at 1500 hours. Join us in recognising the award winners for the Spotlight on New Technology Awards!</p>\r\n",
            "i_title": "Spotlight on New Technology Awards Presentation at OTCafé in 5!"
        },
        {
            "i_isPush": "Pushed",
            "i_time": "14:25",
            "UpdatedDate": "1521814750.51156",
            "i_date": "23/03/2018",
            "i_ID": "RID37734",
            "from": "OTC Asia",
            "i_content": "<p>\r\n\tThe Myanmar Country Session will start at 1430 hours in the Banquet Hall on Level 3.</p>\r\n",
            "i_title": "The Myanmar Country Session Starts in 5!"
        },
        {
            "i_isPush": "Pushed",
            "i_time": "13:45",
            "UpdatedDate": "1521553229.58659",
            "i_date": "20/03/2018",
            "i_ID": "RID37700",
            "from": "OTC Asia",
            "i_content": "<p>\r\n\tThe OTC Asia 2018 Opening Ceremony begins in 15 minutes. Join us at Plenary Theatre on Level 1.</p>\r\n<p>\r\n\tSee you there!</p>\r\n",
            "i_title": "Opening Ceremony Starts in 15 Minutes!"
        },
        {
            "i_isPush": "Pushed",
            "i_time": "15:55",
            "UpdatedDate": "1521561044.05921",
            "i_date": "20/03/2018",
            "i_ID": "RID37703",
            "from": "OTC Asia",
            "i_content": "<p>\r\n\tAttend the 4 technical sessions happening concurrently on Level 4.</p>\r\n",
            "i_title": "Don’t Forget the Technical Sessions Happening in 5!"
        },
        {
            "i_isPush": "Pushed",
            "i_time": "08:30",
            "UpdatedDate": "1521637842.99104",
            "i_date": "21/03/2018",
            "i_ID": "RID37705",
            "from": "OTC Asia",
            "i_content": "<p>\r\n\t<img alt=\"\" src=\"http://203.127.83.146/mobileotcasia2018/Images/FrontEnd_Photos/climatechange.png\" /></p>\r\n<p>\r\n\tFind out more here: <a href=\"http://2018.otcasia.org/files/daily_feed_1__managing_climate_change.pdf\">http://2018.otcasia.org/files/daily_feed_1__managing_climate_change.pdf</a></p>\r\n<p>\r\n\t&nbsp;</p>\r\n<p>\r\n\t<a href=\"http://203.127.83.146/mobileotcasia2018/Images/FrontEnd_Photos/DailyFeed1-ManagingClimateChange.pdf\"><img src=\"http://203.127.83.146/mobileotcasia2018/Images/FrontEnd_Photos/pdficon.png\" /> </a></p>\r\n",
            "i_title": "Daily Feed - Managing Climate Change - Why Not Gas?"
        },
        {
            "i_isPush": "Pushed",
            "i_time": "08:45",
            "UpdatedDate": "1521625743.82801",
            "i_date": "21/03/2018",
            "i_ID": "RID37706",
            "from": "OTC Asia",
            "i_content": "<p>\r\n\tFind out the latest in FLNG at Special Session 1 in Room 406/407 on Level 4.</p>\r\n",
            "i_title": "Special Session 1: FLNG in 15 Minutes"
        },
        {
            "i_isPush": "Pushed",
            "i_time": "08:55",
            "UpdatedDate": "1521625805.12052",
            "i_date": "21/03/2018",
            "i_ID": "RID37707",
            "from": "OTC Asia",
            "i_content": "<p>\r\n\tCheck the Country Session on Japan this morning. Head on to the Banquet Hall on Level 3.</p>\r\n",
            "i_title": "Learn More About Japan in 5 Minutes!"
        },
        {
            "i_isPush": "Pushed",
            "i_time": "10:05",
            "UpdatedDate": "1521626300.66286",
            "i_date": "21/03/2018",
            "i_ID": "RID37708",
            "from": "OTC Asia",
            "i_content": "<p>\r\n\tVisit OTC Asia&rsquo;s expansive showcase of leading-edge innovations and state-of-the-art solutions. The Exhibition is open from 1000-1800 hours today!</p>\r\n",
            "i_title": "The Exhibition is Now Open to Visitors!"
        },
        {
            "i_isPush": "Pushed",
            "i_time": "10:30",
            "UpdatedDate": "1521627643.63367",
            "i_date": "21/03/2018",
            "i_ID": "RID37710",
            "from": "OTC Asia",
            "i_content": "<p>\r\n\tCheck out the latest and most relevant R&amp;D projects by university students from around Asia. Head on to Hall 6 on Ground Level.</p>\r\n",
            "i_title": "NEW! University R&D Showcase"
        },
        {
            "i_isPush": "Pushed",
            "i_time": "10:50",
            "UpdatedDate": "1521628879.91938",
            "i_date": "21/03/2018",
            "i_ID": "RID37711",
            "from": "OTC Asia",
            "i_content": "<p>\r\n\tThe session will start at 1100 hours. Please proceed to the Plenary Hall on Level 1</p>\r\n",
            "i_title": "The Executive Plenary Session Starts in 10 Minutes!"
        },
        {
            "i_isPush": "Pushed",
            "i_time": "14:20",
            "UpdatedDate": "1521814370.0538",
            "i_date": "23/03/2018",
            "i_ID": "RID37733",
            "from": "OTC Asia",
            "i_content": "<p>\r\n\tPanel Session 8 on Talent and Performance Management in Oil and Gas.</p>\r\n",
            "i_title": "The Final Panel Session Starts in 10 Minutes!"
        },
        {
            "i_isPush": "Pushed",
            "i_time": "15:50",
            "UpdatedDate": "1521560972.2271",
            "i_date": "20/03/2018",
            "i_ID": "RID37701",
            "from": "OTC Asia",
            "i_content": "<p>\r\n\tPanel Session 1: The Sum is More than Its Parts &ndash; Balancing Cost, Quality, Reliability, Safety and Sustainability will be held in the Plenary Theatre on Level 3 from 1600-1700 hours.</p>\r\n",
            "i_title": "Panel Session 1 starts in 5 Minutes!"
        },
        {
            "i_isPush": "Pushed",
            "i_time": "15:30",
            "UpdatedDate": "1521559024.95107",
            "i_date": "20/03/2018",
            "i_ID": "RID37702",
            "from": "OTC Asia",
            "i_content": "<p>\r\n\tGet your ice cream in Plenary Theatre, Level 3 and Hall 6, Ground Level now! ONLY available for half an hour!</p>\r\n<p>\r\n\tCompliments of Repsol.</p>\r\n",
            "i_title": "Ice Cream Anyone?"
        },
        {
            "i_isPush": "Pushed",
            "i_time": "17:00",
            "UpdatedDate": "1521564881.65717",
            "i_date": "20/03/2018",
            "i_ID": "RID37704",
            "from": "OTC Asia",
            "i_content": "<p>\r\n\tPETRONAS is hosting a welcome reception for all OTC Asia participants in Halls 1-6, Ground Level.</p>\r\n<p>\r\n\t&nbsp;</p>\r\n<p>\r\n\tCheck out the special performances while networking with industry leaders, experts and your peers</p>\r\n",
            "i_title": "Welcome Reception by PETRONAS in the Exhibition Halls now!"
        }
    ],
    "message": "success",
    "Status": "200"
}